<?xml version="1.0" standalone="no"?>
<!DOCTYPE svg PUBLIC "-//W3C//DTD SVG 20010904//EN"
 "http://www.w3.org/TR/2001/REC-SVG-20010904/DTD/svg10.dtd">
<svg version="1.0" xmlns="http://www.w3.org/2000/svg"
 width="480.000000pt" height="480.000000pt" viewBox="0 0 480.000000 480.000000"
 preserveAspectRatio="xMidYMid meet">
<metadata>
Created by potrace 1.11, written by Peter Selinger 2001-2013
</metadata>
<g transform="translate(0.000000,480.000000) scale(0.100000,-0.100000)"
fill="#000000" stroke="none">
<path d="M2269 4797 c-2 -3 -38 -8 -78 -11 -41 -4 -77 -9 -80 -11 -4 -2 -22
-6 -41 -9 -66 -11 -85 -16 -165 -40 -633 -189 -1091 -697 -1191 -1321 -10 -67
-13 -346 -3 -405 5 -30 11 -72 14 -92 17 -110 73 -274 136 -401 56 -110 181
-280 241 -326 29 -22 21 1 -33 90 -262 431 -321 874 -174 1316 138 415 475
763 905 933 94 37 276 88 345 96 17 2 60 7 97 12 125 16 356 6 483 -20 27 -5
70 -14 93 -19 120 -24 332 -112 457 -189 355 -218 595 -537 694 -922 35 -135
44 -208 45 -348 2 -334 -70 -565 -292 -940 -23 -38 78 67 129 135 138 183 233
417 266 655 10 70 10 339 0 405 -68 461 -317 850 -712 1117 -196 132 -470 240
-690 272 -23 4 -52 9 -65 12 -30 7 -374 16 -381 11z"/>
<path d="M2157 3186 c-84 -30 -151 -100 -183 -188 -20 -56 -26 -157 -13 -221
6 -29 13 -63 15 -76 15 -76 110 -234 171 -285 67 -56 116 -62 215 -25 61 23
97 22 198 -1 31 -7 68 -10 84 -6 44 11 120 90 160 165 44 84 47 102 5 35 -37
-59 -104 -130 -141 -150 -38 -20 -66 -18 -139 10 -70 26 -127 26 -200 1 -23
-8 -50 -15 -61 -15 -78 0 -188 169 -224 345 -10 48 -4 149 11 194 19 58 70
116 120 137 48 20 131 19 178 -1 53 -22 93 -21 165 3 109 38 206 23 275 -42
65 -61 97 -206 73 -330 -10 -50 5 -21 18 36 7 29 11 86 10 126 -3 111 -40 187
-117 243 -74 54 -191 66 -285 31 -45 -17 -53 -18 -88 -5 -98 36 -181 42 -247
19z"/>
<path d="M1220 2451 c0 -15 132 -120 165 -133 23 -8 39 -28 70 -90 57 -111
106 -179 151 -209 52 -34 148 -72 171 -66 17 4 17 4 -2 12 -11 5 -39 21 -62
37 -23 15 -46 28 -51 28 -5 0 -29 18 -54 40 -44 38 -101 124 -163 245 -42 82
-69 125 -77 125 -7 0 6 -52 18 -71 10 -16 -8 -6 -79 48 -55 41 -87 54 -87 34z"/>
<path d="M3537 2415 c-37 -25 -68 -45 -71 -45 -2 0 0 14 5 32 5 17 7 34 5 36
-6 5 -47 -61 -86 -138 -60 -121 -127 -213 -185 -252 -29 -21 -56 -38 -60 -38
-3 0 -29 -16 -58 -36 -29 -20 -44 -34 -35 -31 9 3 36 11 60 17 127 35 187 93
283 278 23 45 44 74 58 78 22 7 145 99 159 119 10 14 10 25 -1 25 -5 0 -38
-20 -74 -45z"/>
<path d="M1799 2349 c-1 -8 -2 -21 -3 -29 -1 -19 38 -147 48 -157 4 -5 6 6 3
22 -3 17 -8 49 -12 73 -4 23 -5 42 -2 42 3 0 42 -60 86 -134 79 -130 161 -236
184 -236 23 -1 117 -95 132 -133 13 -30 14 -61 9 -160 -10 -161 -10 -248 -1
-327 9 -81 15 -137 22 -220 3 -36 17 -110 32 -165 24 -97 27 -180 9 -285 -3
-14 -7 -41 -10 -61 -3 -20 -10 -48 -15 -62 -5 -14 -13 -45 -16 -68 -3 -24 -10
-59 -15 -78 -5 -19 -8 -37 -6 -40 4 -6 14 -74 21 -131 4 -32 22 -80 31 -80 7
0 -1 130 -11 182 -3 14 -2 43 3 64 l8 38 24 -34 c13 -19 27 -37 30 -40 3 -3
25 -30 50 -60 25 -30 55 -65 68 -78 26 -29 28 -40 19 -129 -3 -29 -3 -53 -1
-53 10 0 42 89 47 128 5 47 -9 70 -126 211 -57 68 -59 73 -59 128 0 62 6 119
27 247 13 85 12 159 -5 241 -5 28 -12 68 -16 90 -3 22 -9 56 -14 75 -5 19 -11
52 -14 74 -4 21 -8 41 -10 45 -10 16 -19 173 -20 346 -1 228 -9 252 -101 330
-112 95 -161 151 -233 265 -40 63 -80 125 -90 137 -21 27 -71 42 -73 22z"/>
<path d="M2956 2319 c-19 -23 -54 -74 -77 -113 -80 -135 -118 -184 -186 -236
-93 -73 -127 -111 -142 -162 -10 -31 -14 -134 -16 -363 -1 -192 -7 -339 -13
-366 -6 -26 -14 -75 -17 -110 -10 -132 -17 -194 -23 -204 -3 -7 -2 -7 5 0 14
13 38 100 58 200 8 44 17 91 20 105 9 47 15 194 16 420 1 124 6 249 12 278 11
57 46 99 138 164 66 48 105 96 165 205 34 61 105 173 111 173 2 0 1 -24 -2
-52 -4 -29 -7 -59 -7 -65 -1 -7 -5 -13 -10 -13 -5 0 -6 -5 -2 -11 9 -15 20 4
39 69 34 116 -2 159 -69 81z"/>
<path d="M1624 2320 c-8 -37 -12 -37 -41 -2 -40 48 -27 -1 28 -105 85 -163
143 -217 247 -229 45 -5 46 -5 22 9 -136 78 -145 85 -197 165 l-53 80 10 52
c12 64 12 60 0 60 -6 0 -13 -13 -16 -30z"/>
<path d="M3198 2344 c-3 -2 -1 -27 4 -55 9 -48 7 -54 -24 -106 -47 -78 -84
-114 -161 -159 -37 -21 -67 -41 -67 -45 0 -11 95 17 137 41 54 30 171 210 188
288 8 41 0 41 -25 0 l-20 -33 -6 33 c-7 32 -17 46 -26 36z"/>
<path d="M1365 2191 c7 -22 19 -50 26 -63 l12 -22 -29 19 c-16 10 -47 31 -68
47 -47 34 -74 38 -53 8 21 -30 150 -130 168 -130 8 0 33 -26 55 -57 39 -57 70
-80 159 -115 45 -18 148 -63 184 -81 39 -20 190 -229 197 -273 3 -22 7 -50 9
-64 49 -317 55 -390 40 -490 -7 -47 -16 -112 -20 -145 -3 -33 -9 -80 -12 -105
-3 -25 -6 -51 -6 -59 0 -19 -70 -67 -133 -91 -30 -11 -81 -33 -114 -50 -77
-39 -221 -87 -285 -94 -27 -4 -63 -9 -80 -11 -16 -3 -57 -7 -90 -10 -185 -16
-232 -25 -425 -77 -132 -35 -167 -57 -304 -191 -81 -80 -93 -104 -33 -64 15
10 27 14 27 10 0 -3 10 3 23 14 12 11 60 49 107 85 81 61 91 65 225 101 77 20
160 39 185 42 25 3 65 7 89 10 25 3 81 8 125 11 221 14 300 35 472 123 32 16
60 28 62 26 2 -2 -16 -24 -40 -49 -23 -24 -59 -64 -79 -88 -20 -24 -59 -56
-86 -70 -53 -29 -357 -145 -405 -155 -16 -3 -31 -10 -34 -15 -6 -9 6 -9 106 6
14 2 56 11 93 20 37 9 72 14 77 11 6 -4 10 -1 10 4 0 6 5 11 11 11 22 0 146
54 189 83 25 16 58 43 73 60 l28 31 53 -58 c46 -49 53 -63 53 -97 0 -71 22
-67 30 5 5 42 2 49 -39 98 -24 29 -49 60 -55 68 -10 13 -3 25 35 67 45 49 63
69 143 160 38 42 50 85 64 233 5 54 9 79 21 130 12 52 11 209 -2 300 -8 52
-16 113 -19 135 -3 22 -8 47 -10 55 -2 8 -7 31 -10 50 -13 82 -26 122 -45 140
-3 3 -27 32 -52 65 -79 103 -135 144 -228 165 -30 7 -57 16 -60 19 -3 4 -34
22 -70 40 -36 19 -76 43 -89 55 -27 24 -115 152 -125 181 -7 20 -51 75 -60 75
-3 0 1 -18 9 -39z"/>
<path d="M3430 2134 c-65 -124 -96 -157 -167 -177 -130 -36 -276 -128 -256
-160 5 -8 9 -7 11 4 4 22 111 72 255 119 53 17 74 30 100 62 41 51 47 57 140
129 42 33 77 67 77 75 0 20 -7 18 -59 -19 -69 -51 -72 -52 -62 -25 15 42 21
78 13 78 -4 0 -28 -39 -52 -86z"/>
<path d="M2945 1772 c-69 -65 -139 -152 -165 -207 -41 -84 -76 -384 -56 -480
2 -11 7 -42 10 -70 4 -27 14 -79 22 -115 9 -36 17 -113 19 -171 3 -107 19
-161 59 -202 8 -8 23 -28 33 -44 10 -17 26 -42 36 -56 16 -22 17 -31 7 -61 -6
-19 -13 -45 -15 -58 -3 -13 -11 -46 -20 -73 -16 -55 -20 -125 -6 -109 11 11
96 275 93 288 -2 4 21 -6 50 -23 91 -54 250 -129 333 -156 91 -30 165 -70 213
-114 54 -50 36 -9 -24 52 -56 57 -157 114 -262 147 -58 18 -59 26 -4 27 26 0
101 4 167 8 194 13 219 11 370 -33 77 -22 158 -44 179 -48 26 -4 56 -22 90
-53 28 -25 69 -60 91 -76 22 -17 48 -39 57 -50 20 -24 24 -5 6 28 -7 12 -45
58 -85 103 l-72 81 -123 32 c-68 18 -159 45 -203 60 -88 30 -154 33 -411 17
-75 -5 -135 -4 -160 2 -21 6 -61 13 -88 17 -58 7 -115 38 -173 95 -66 63 -75
88 -78 216 -2 62 -6 117 -9 123 -4 5 -9 29 -12 53 -3 24 -9 68 -13 98 -21 138
-18 302 8 435 10 51 68 187 83 193 4 2 8 8 8 14 0 11 55 86 77 104 11 9 28 55
20 54 -1 0 -24 -22 -52 -48z"/>
</g>
</svg>
